…
kgr_maps_detrend |> 
  filter(variable == "xco2")
```

    ## # A tibble: 688,476 × 7
    ##    variable state  year     X     Y value value_std
    ##    <chr>    <chr> <dbl> <dbl> <dbl> <dbl>     <dbl>
    ##  1 xco2     GO     2015 -50.9 -19.5  393.      1.36
    ##  2 xco2     GO     2015 -50.8 -19.5  393.      1.35
    ##  3 xco2     GO     2015 -51.0 -19.4  393.      1.37
    ##  4 xco2     GO     2015 -50.9 -19.4  393.      1.36
    ##  5 xco2     GO     2015 -50.9 -19.4  393.      1.34
    ##  6 xco2     GO     2015 -51.0 -19.4  393.      1.36
    ##  7 xco2     GO     2015 -50.9 -19.4  393.      1.34
    ##  8 xco2     GO     2015 -50.9 -19.4  393.      1.30
    ##  9 xco2     GO     2015 -51.0 -19.3  393.      1.36
    ## 10 xco2     GO     2015 -51.0 -19.3  393.      1.34
    ## # ℹ 688,466 more rows
…
